{
  "items": [
    {
      "_id": "683e48e3f50c60f2c9d44111",
      "title": "上海市发展和改革委员会：关于调整本市非居民天然气销售基准价格的通知",
      "content": "\n各有关单位：\n根据《关于本市非居民天然气用户上下游价格联动机制的通知》（沪发改规范〔2022〕10号）相关规定，结合本市天然气上游气源价格变动情况，决定调整非居民用户天然气销售基准价格。调整后的价格见下表：\n非居民用户天然气销售基准价格表\n单位：元/立方米\n\n上述价格自2025年5月1日起执行。实际销售价格以政府制定的基准价格为基础，由供应企业在上下5%的浮动幅度内确定。\n请各供应企业认真做好准确抄表、宣传解释等工作，妥善处理实施中的有关问题，提高服务质量和管理水平，确保全市燃气稳定安全供应。\n特此通知。\n上海市发展和改革委员会\n2025年4月24日\n\n",
      "type": "policy",
      "source": "国家能源局",
      "publish_time": "2025-04-28T00:00:00",
      "tags": [],
      "link": "https://www.shpgx.com/html/zcsd/20250428/7756.html",
      "basic_info_tags": [
        "政策法规"
      ],
      "region_tags": [
        "上海市",
        "上海"
      ],
      "energy_type_tags": [
        "天然气"
      ],
      "business_field_tags": [
        "民营经济发展",
        "市场准入优化",
        "投资支持",
        "科技创新",
        "公平竞争"
      ],
      "beneficiary_tags": [
        "民营企业"
      ],
      "policy_measure_tags": [
        "投资支持",
        "市场准入措施",
        "科技创新"
      ],
      "importance_tags": [
        "国家级",
        "重要政策"
      ],
      "created_at": "2025-06-03T07:30:39.282295",
      "updated_at": "2025-06-03T07:30:39.282295",
      "relevance_score": 0.25160000000000005,
      "view_count": 0
    },
    {
      "_id": "683e48e3f50c60f2c9d44113",
      "title": "上海市发展和改革委员会：关于调整本市非居民天然气销售基准价格的通知",
      "content": "\n各有关单位：\n根据《关于本市非居民天然气用户上下游价格联动机制的通知》（沪发改规范〔2022〕10号）相关规定，结合本市天然气上游气源价格变动情况，决定调整非居民用户天然气销售基准价格。调整后的价格见下表：\n\n非居民用户天然气销售基准价格表\n单位：元/立方米\n\n\n\n\n\n上述价格自2025年1月1日起执行。实际销售价格以政府制定的基准价格为基础，由供应企业在上下5%的浮动幅度内确定。\n请各供应企业认真做好准确抄表、宣传解释等工作，妥善处理实施中的有关问题，提高服务质量和管理水平，确保全市燃气稳定安全供应。\n特此通知。\n\n\n上海市发展和改革委员会\n2024年12月27日\n\n\n\n\n\n\n\n\n",
      "type": "policy",
      "source": "国家能源局",
      "publish_time": "2025-01-03T00:00:00",
      "tags": [],
      "link": "https://www.shpgx.com/html/zcsd/20250103/7261.html",
      "basic_info_tags": [
        "政策法规"
      ],
      "region_tags": [
        "上海市",
        "上海"
      ],
      "energy_type_tags": [
        "天然气"
      ],
      "business_field_tags": [
        "民营经济发展",
        "市场准入优化",
        "投资支持",
        "科技创新",
        "公平竞争"
      ],
      "beneficiary_tags": [
        "民营企业"
      ],
      "policy_measure_tags": [
        "投资支持",
        "市场准入措施",
        "科技创新"
      ],
      "importance_tags": [
        "国家级",
        "重要政策"
      ],
      "created_at": "2025-06-03T07:30:39.282910",
      "updated_at": "2025-06-03T07:30:39.282910",
      "relevance_score": 0.25160000000000005,
      "view_count": 0
    },
    {
      "_id": "683e48e3f50c60f2c9d44112",
      "title": "上海市发展和改革委员会：关于核定本市管道天然气配气价格及上海天然气管网有限公司管输价格的通知",
      "content": "\n各管道燃气经营企业、上海天然气管网有限公司：\n按照国家发展改革委《关于加强配气价格监督的指导意见》（发改价格〔2017〕1171号）、《关于印发<天然气管道运输价格管理办法（暂行）>和<天然气管道运输定价成本监审办法（暂行）>的通知》（发改价格规〔2021〕818号）和《上海市管道天然气配气价格管理办法》（沪发改规范〔2023〕13号）相关规定，根据成本监审情况，结合本市实际，现就本市管道天然气配气价格及上海天然气管网有限公司（以下简称“市管网公司”）管输价格等有关事项通知如下：\n一、本市管道天然气综合配气价格核定为0.41元/立方米（含税）。\n二、管输价格核定为0.12元/立方米（含税）。上述价格适用于市管网公司接受委托，向托运方提供天然气管道运输服务。\n三、请各管道燃气经营企业及市管网公司严格执行政府定价，妥善做好价格结算和政策解释工作，不断提高服务质量和管理水平。\n四、本通知自2025年5月1日起执行。\n上海市发展和改革委员会\n2025年4月22日\n\n",
      "type": "policy",
      "source": "国家能源局",
      "publish_time": "2025-04-28T00:00:00",
      "tags": [],
      "link": "https://www.shpgx.com/html/zcsd/20250428/7757.html",
      "basic_info_tags": [
        "政策法规"
      ],
      "region_tags": [
        "上海市",
        "上海"
      ],
      "energy_type_tags": [
        "管道天然气(PNG)",
        "天然气"
      ],
      "business_field_tags": [
        "民营经济发展",
        "市场准入优化",
        "投资支持",
        "科技创新",
        "公平竞争"
      ],
      "beneficiary_tags": [
        "民营企业"
      ],
      "policy_measure_tags": [
        "投资支持",
        "市场准入措施",
        "科技创新"
      ],
      "importance_tags": [
        "国家级",
        "重要政策"
      ],
      "created_at": "2025-06-03T07:30:39.282264",
      "updated_at": "2025-06-03T07:30:39.282264",
      "relevance_score": 0.235875,
      "view_count": 0
    },
    {
      "_id": "683e48e3f50c60f2c9d44114",
      "title": "上海市发展和改革委员会：关于我市开展气电价格联动调整有关事项的通知",
      "content": "\n\n国网上海市电力公司、各有关发电企业：\n根据《关于优化调整我市天然气发电上网电价机制有关事项的通知》（沪发改价管〔2019〕36号）确定的气电价格联动机制，结合天然气价格调整情况，决定联动调整我市天然气发电上网电价，现将有关事项通知如下。\n一、联动调整天然气发电机组上网电价\n1.天然气调峰发电机组的电量电价调整为每千瓦时0.6218 元。天然气调峰9E系列机组，全年发电利用小时300小时以内的电量电价，在上述电价基础上每千瓦时增加0.15元；全年发电利用小时300（不含）-500（含）小时以内的电量电价，在上述电价基础上每千瓦时增加0.1元；全年发电利用小时500小时（不含）以上的部分不再加价。容量电价保持不变。\n2.天然气热电联产发电机组（含小型背压式热电联产机组）的电量电价为：全年发电利用小时2500（含）以内的电量电价调整为每千瓦时0.6460元，全年发电利用小时2500（不含）-5000（含）小时以内的电量电价调整为每千瓦时0.5656元，全年发电利用小时5000小时（不含）以上的电量电价执行本市燃煤发电基准价。容量电价保持不变。\n3.天然气分布式发电机组的单一制上网电价调整为每千瓦时0.9859元。\n\n二、本通知自2025年1月1日起执行。\n附件：天然气发电机组上网电价调价表\n上海市发展和改革委员会\n2024年12月27日\n\n\n附  件\n天然气发电机组上网电价调价表\n单位：元/月·千瓦，元/千瓦时\n\n\n\n\n注：9E调峰机组发电利用小时300（含）以内，电量电价每千瓦时增加0.15元；全年发电利用小时300（不含）-500（含）小时以内的电量电价，在上述电价基础上每千瓦时增加0.1元；全年发电利用小时500小时（不含）以上的部分不再加价。\n\n\n",
      "type": "policy",
      "source": "国家能源局",
      "publish_time": "2025-01-02T00:00:00",
      "tags": [],
      "link": "https://www.shpgx.com/html/zcsd/20250102/7254.html",
      "basic_info_tags": [
        "政策法规"
      ],
      "region_tags": [
        "上海市",
        "上海"
      ],
      "energy_type_tags": [
        "天然气",
        "电力"
      ],
      "business_field_tags": [
        "民营经济发展",
        "市场准入优化",
        "投资支持",
        "科技创新",
        "公平竞争"
      ],
      "beneficiary_tags": [
        "民营企业"
      ],
      "policy_measure_tags": [
        "投资支持",
        "市场准入措施",
        "科技创新"
      ],
      "importance_tags": [
        "国家级",
        "重要政策"
      ],
      "created_at": "2025-06-03T07:30:39.282940",
      "updated_at": "2025-06-03T07:30:39.282940",
      "relevance_score": 0.235875,
      "view_count": 0
    },
    {
      "_id": "683e48e3f50c60f2c9d44115",
      "title": "关于开展安平管道天然气竞价交易的公告",
      "content": "关于开展安平管道天然气竞价交易的公告交易中心办〔2025〕第54号为进一步响应国家天然气市场化改革要求,服务行业健康持续稳定发展,上海石油天然气交易中心(下称“上海交易中心”)拟定于2025年5月26日通过上海交易中心交易平台开展6月份安平管道天然气竞价交易。具体公告如下:\n一、交易时间\n2025年5月26日 10:00-11:00。\n交易公告链接地址：https://www.shpgx.com/html/jygg/20250520/7825.html\n二、产品介绍\n1.产品名称:天然气。\n2.卖方:于报名审核通过后进行通知。\n3.交易量:2000万立方米。\n4.交收期:线上成交后第5个自然日8:00起至2025年\n6月30日8:00(如遇特殊情况,以双方协商为准)。\n5.交收地:国家管网安平枢纽点。\n6.交收方式:自主交收。\n7.气质要求:\n天然气符合中华人民共和国国家标准《天然气》\n(GB17820-2018)中的天然气标准。\n8.相关要求:\n买卖双方原则上应按成交量日均值均衡供用气。\n三、交易参数\n通过上海交易中心交易系统进入“竞价交易”-“管道天\n然气” - “安平管道气”交易专场。\n\n类别 参数 说明\n交易模式 竞价交易 竞价交易-竞买交易\n挂单量 2000万方 \n最大摘单量 2000万方 允许用户单笔最大摘单量\n最小摘单量 30万方 允许用户单笔最小摘单量\n递增单位 1万方 允许单个用户单笔摘单的递增量\\n只能以此单位的整数倍摘单。\n竞拍底价 2.45元/方 含税价格\n最小加价幅度 0.001元/方 单笔加价的最小值\n最大加价幅度 0.5元/方 单笔加价的最大值\n出价单位 0.001元/方 出价需为0.001 的整数倍\n封顶价 不限 \n成交价格  含税价格\n倒计时和成交规则 5分钟 挂单量全部出价后开始倒计时,倒计时5分钟,倒\\n计时期间有新报价,倒计时重新开始。倒计时期间\\n内无新报价或交易节结束时,交易结束,倒计时强\\n制终止,按照“价格优先,时间优先”顺序成交。\n交收期 线上成交后第5个自然日 8:00\\n起至2025年6月30日8:00\\n(如遇特殊情况,以双方协商为准) \n交收地 国家管网安平枢纽点 \n交收方式 自主交收 \n\n四、交易资格 1.申请企业须为上海交易中心国内交易商会员,且已完 成银行第三方存管签约。 2.申请企业应具有良好的信用记录,不在失信被执行人 企业名单之列。 3.申请企业应具有完整的天然气交易、交收、结算及风 险管理的体系和团队。 4.申请报名 有意向参与此次交易的企业请将附件申请表(加盖公 章)的扫描件发送至以下邮箱:PNG@shpgx.com。报名 是否成功以上海交易中心邮件回复为准。 报名截止时间为2025年5月25日18:00时。 5.入围通知 上海交易中心收到企业申请表后,根据提交的时间顺 序开展资质审核,并于5月25日 18:00时之前通过邮件 发送审核通过的入围通知。收到入围通知的企业请于本公 告公布的交易时间在上海交易中心的交易系统内按时参加 交易。 五、交易服务费及保证金 参与交易的交易商会员需提前入金,将资金转入对应的 交易结算账户,确保交易结算账户可用余额充足。交易服务 费和保证金的入金时间为交易日的 09:00至15:00,且均以 现金方式缴纳。 (一)交易服务费 交易手续费=交易总金额$$×$$千分之一,交易成交金额=成 交单价$$×$$成交量),双边收取。\n(二)交易保证金\n交易保证金=交易总金额×10%,交易成交金额=成交单价×成交量),双边收取。\n交易结束后,未达成交易的客户交易保证金将自动释放,可操作出金;达成交易的客户交易保证金,待双方合同履约结束后,由中心进行释放。\n五、交收结算方式\n结算价格按照线上实际成交价格执行。交易达成后,电子交易系统将自动生成包括结算价格的电子交易合同,卖方依据电子交易合同向买方交付天然气。\n六、交易准备工作\n(一)已开户客户\n已开户客户请查阅上海交易中心网站(https://www.shpgx.com)-会员中心-下载中心,下载最新交易系统客户端,按照操作手册熟悉交易系统。网址为https://www.shpgx.com/html/download/.\n(二)未开户客户注册流程\n1.注册。登录上海交易中心官网-会员中心-会员注册,填写注册相关信息,跟踪审批进度。联系电话:任老师\n17721005907;\n2.账号绑定及入金。选择银行账户进行签约操作,向系统入金,确保保证金及服务费金额充足。出入金教程可登录上海交易中心官网-入市指南-操作指南,根据操作教程完成银行账户签约及入金,确保交易账号余额足以支付交易保证金及服务费。联系电话:顾老师15800744768,马老师15862884400;\n(三)交易保证金\n交易保证金=交易总金额×10%,交易成交金额=成交单价×成交量),双边收取。\n交易结束后,未达成交易的客户交易保证金将自动释放,可操作出金;达成交易的客户交易保证金,待双方合同履约结束后,由中心进行释放。\n七、交收结算方式\n结算价格按照线上实际成交价格执行。交易达成后,电子交易系统将自动生成包括结算价格的电子交易合同,卖方\n依据电子交易合同向买方交付天然气。\n八、交易准备工作\n(一)已开户客户\n已开户客户请查阅上海交易中心网站\n(https://www.shpgx.com)-会员中心-下载中心,下载最新交易系统客户端,按照操作手册熟悉交易系统。网址为https://www.shpgx.com/html/download/.\n(二)未开户客户注册流程\n1.注册。登录上海交易中心官网-会员中心-会员注册,填写注册相关信息,跟踪审批进度。联系电话:任老师17721005907;\n2.账号绑定及入金。选择银行账户进行签约操作,向系统入金,确保保证金及服务费金额充足。出入金教程可登录上海交易中心官网-入市指南-操作指南,根据操作教程完成银行账户签约及入金,确保交易账号余额足以支付交易保证金及服务费。联系电话:顾老师15800744768,马老师15862884400;\n本次交易本着公平、公正、公开原则,交易解释权归上 海交易中心所有。 如需进一步咨询,欢迎拨打: 上海交易中心: 陶鹏,159 6971 9088. 上海石油天然气交易中心 2025年5月20日",
      "type": "announcement",
      "source": "安平管道天然气交易中心",
      "publish_time": "2025-05-20T00:00:00",
      "tags": [],
      "link": "https://www.shpgx.com/html/jygg/20250520/7825.html",
      "basic_info_tags": [
        "交易公告"
      ],
      "region_tags": [
        "上海"
      ],
      "energy_type_tags": [
        "管道天然气(PNG)",
        "原油",
        "天然气"
      ],
      "business_field_tags": [
        "交易信息"
      ],
      "beneficiary_tags": [
        "LNG交易方"
      ],
      "policy_measure_tags": [
        "竞价规则"
      ],
      "importance_tags": [
        "常规公告"
      ],
      "created_at": "2025-06-03T07:30:39.283758",
      "updated_at": "2025-06-03T07:30:39.283758",
      "relevance_score": 0.18888888888888888,
      "view_count": 0
    },
    {
      "_id": "683e48e3f50c60f2c9d4411a",
      "title": "关于开展线上管道气天然气竞价交易的公告",
      "content": "关于开展线上管道天然气竞价交易的公告 交易中心办〔2025〕第43号 为进一步响应国家天然气市场化改革要求,服务行业健 康持续稳定发展,上海石油天然气交易中心(下称“上海交 易中心”)拟定于2025年5月7日通过上海交易中心交易 平台开展 5月份线上管道天然气竞价交易。具体公告如下: \n一、交易时间 2025年5月7日10:00-11:00。 \n交易公告链接地址：https://www.shpgx.com/html/jygg/20250520/7825.html\n二、产品介绍 1.产品名称:天然气。 2.卖方:于报名审核通过后进行通知。 3.交易量:1550万立方米。 4.交收期:线上成交后第5个自然日8:00起至2025年 5月31日8:00(如遇特殊情况,以双方协商为准)。 5.交收地:国家管网安平枢纽点。 6.交收方式:自主交收。 7.气质要求: 天然气符合中华人民共和国国家标准《天然气》 (GB17820-2018)中的天然气标准。 8.相关要求: 买卖双方原则上应按成交量日均值均衡供用气。\n三、交易参数 通过上海交易中心交易系统进入“竞价交易”-“管道天 然气” - “安平管道气”交易专场。\n类别 参数 说明\n交易模式 竞价交易 竞价交易-竞买交易\n挂单量 1550万方 \n最大摘单量 1550万方 允许用户单笔最大摘单量\n最小摘单量 总量于挂单时根据剩余天数计算 (5万方/日) 允许用户单笔最小摘单量\n递增单位 总量于挂单时根据剩余天数计算 (1万方/日) 允许单个用户单笔摘单的递增量 只能以此单位的整数倍摘单。\n竞拍底价 2.36元/方 含税价格\n最小加价幅度 0.01元/方 单笔加价的最小值\n最大加价幅度 0.5元/方 单笔加价的最大值\n出价单位 0.01元/方 出价需为0.01的整数倍\n封顶价 不限 \n成交价格  含税价格\n倒计时和成交规则 5分钟 挂单量全部出价后开始倒计时,倒计时5分钟,倒计时期间有新报价,倒计时重新开始。倒计时期间内无新报价或交易节结束时,交易结束,倒计时强制终止,按照“价格优先,时间优先”顺序成交。\n交收期 线上成交后第5个自然日 8:00 起至2025年5月31日8:00 (如遇特殊情况,以双方协商为准) \n交收地 国家管网安平枢纽点 \n交收方式 自主交收 \n四、交易资格 1.申请企业须为上海交易中心国内交易商会员,且已完 成银行第三方存管签约。 2.申请企业应具有良好的信用记录,不在失信被执行人 企业名单之列。 3.申请企业应具有完整的天然气交易、交收、结算及风 险管理的体系和团队。 4.申请报名 有意向参与此次交易的企业请将附件申请表(加盖公 章)的扫描件发送至以下邮箱:PNG@shpgx.com。报名 是否成功以上海交易中心邮件回复为准。 报名截止时间为2025年5月6日18:00时。 5.入围通知 上海交易中心收到企业申请表后,根据提交的时间顺 序开展资质审核,并于5月6日18:00时之前通过邮件发 送审核通过的入围通知。收到入围通知的企业请于本公告 公布的交易时间在上海交易中心的交易系统内按时参加交易。 \n五、交易服务费及保证金 参与交易的交易商会员需提前入金,将资金转入对应的 交易结算账户,确保交易结算账户可用余额充足。交易服务 费和保证金的入金时间为交易日的 09:00至15:00,且均以 现金方式缴纳。 \n六、(一)交易服务费 交易手续费=交易总金额×千分之一,交易成交金额=成 交单价×成交量),双边收取。\n(二)交易保证金 交易保证金=交易总金额×10%,交易成交金额=成交单 价×成交量),双边收取。 交易结束后,未达成交易的客户交易保证金将自动释放, 可操作出金;达成交易的客户交易保证金,待双方合同履约 结束后,由中心进行释放。 \n七、交收结算方式 结算价格按照线上实际成交价格执行。交易达成后,电 子交易系统将自动生成包括结算价格的电子交易合同,卖方 依据电子交易合同向买方交付天然气。 \n八、交易准备工作 (一)已开户客户 已开户客户请查阅上海交易中心网站 (https://www.shpgx.com)-会员中心-下载中心,下载最 新交易系统客户端,按照操作手册熟悉交易系统。网址为 https://www.shpgx.com/html/download/. (二)未开户客户注册流程 1.注册。登录上海交易中心官网-会员中心-会员注册, 填写注册相关信息,跟踪审批进度。联系电话:任老师 17721005907; 2.账号绑定及入金。选择银行账户进行签约操作,向系 统入金,确保保证金及服务费金额充足。出入金教程可登录 上海交易中心官网-入市指南-操作指南,根据操作教程完成 银行账户签约及入金,确保交易账号余额足以支付交易保 证金及服务费。联系电话:顾老师15800744768,马老师 15862884400;本次交易本着公平、公正、公开原则,交易解释权归上海交易中心所有。\n如需进一步咨询,欢迎拨打:上海交易中心:陶鹏,159 6971 9088。",
      "type": "announcement",
      "source": "线上天然气交易平台",
      "publish_time": "2024-04-30T00:00:00",
      "tags": [],
      "link": "https://www.shpgx.com/html/jygg/20250520/7825.html",
      "basic_info_tags": [
        "交易公告"
      ],
      "region_tags": [
        "上海"
      ],
      "energy_type_tags": [
        "管道天然气(PNG)",
        "原油",
        "天然气"
      ],
      "business_field_tags": [
        "交易信息"
      ],
      "beneficiary_tags": [
        "LNG交易方"
      ],
      "policy_measure_tags": [
        "竞价规则"
      ],
      "importance_tags": [
        "常规公告"
      ],
      "created_at": "2025-06-03T07:30:39.283808",
      "updated_at": "2025-06-03T07:30:39.283808",
      "relevance_score": 0.18888888888888888,
      "view_count": 0
    },
    {
      "_id": "683e48e3f50c60f2c9d44119",
      "title": "中海油浙江关于5月10日华东浙沪市场价格调整公告",
      "content": "中海石油气电集团有限责任公司浙江分公司 5月中海油华东浙沪市场价格调整公告 公司各用户: 自2025年5月10日8:00起,中海油华东浙沪市场液态基准价格 调整为:\n1.浙江地区基准价5220元/吨;\n2.上海地区基准价5220元/吨。 备注:\n3.浙江分公司保留调整销售价格及政策的权利,在未发布新 的调价公告之前,地区内价格及销售政策保持不变。若买方在本 公告发出后实际提气,则视同买方同意该调整后价格,并按调整 后价格进行结算。\n4.对于海油商城物流系统地址匹配失败的提气计划(海油配 送计划除外),按照用户提气当日浙江分公司最高出站价暂结; 若次月该提气计划卸货地申诉审核通过,按照申诉结果结算。若 核查发现销售至浙江、上海以外的提气计划,按照用户提气当日 同区域海油最高出站价结算。\n5.浙江分公司将按照合同约定对提气计划卸货地异常情况进 行查处。同时,欢迎各用户向浙江分公司举报扰乱华东液态市场的不良行为,浙江分公司将与各用户共同维护华东液态市场秩序。如需进一步咨询,欢迎拨打中国海油天然气销售运营管理中心热线电话:956067。中海石油气电集团有限责任公司浙江分公司2025年5月10",
      "type": "price",
      "source": "中海油浙江公司",
      "publish_time": "2025-05-10T00:00:00",
      "tags": [],
      "link": "https://www.shpgx.com/html/hyzq/20250510/7795.html",
      "basic_info_tags": [
        "调价公告"
      ],
      "region_tags": [
        "上海",
        "浙江"
      ],
      "energy_type_tags": [
        "原油",
        "天然气"
      ],
      "business_field_tags": [
        "价格动态",
        "价格变化"
      ],
      "beneficiary_tags": [
        "LNG交易方",
        "华东区域用户"
      ],
      "policy_measure_tags": [
        "['价格调整'，'区域价格调整']"
      ],
      "importance_tags": [
        "常规公告"
      ],
      "created_at": "2025-06-03T07:30:39.283734",
      "updated_at": "2025-06-03T07:30:39.283734",
      "relevance_score": 0.15454545454545457,
      "view_count": 0
    },
    {
      "_id": "683e48e3f50c60f2c9d44117",
      "title": "5月5日-11日中国原油综合进口到岸价格指数为116.28点",
      "content": "5月14日，海关总署全球贸易监测分析中心和上海石油天然气交易中心联合发布的中国原油综合进口到岸价格指数显示5月5日-11日，中国原油综合进口到岸价格指数为116.28点，周环比下跌1.57%，同比下跌19.56%。\n美国能源信息署（\nEIA）最新发布的库存数据显示，截至5月2日当周，美国商业原油库存减少203.2万桶，至4.3838亿桶，较五年同期平均水平低约3%；NYMEX的WTI原油期货交付地-俄克拉荷马州库欣地区的原油库存减少74.0万桶，至2496.1万桶。\n本周国际油价止跌反弹，截至\n5月9日收盘，Brent原油期货价格环比上涨4.27%，至63.91美元/桶；WTI原油期货价格环比上涨4.68%，至61.02美元/桶。上海期货交易所原油期货价格环比下跌1.68%，至468.5元/吨（5月1\n2日开盘价补涨至475.0元\n/吨）。中美就关税安排达成初步协定\n一定程度上\n提振市场信心，\nWTI与Brent期货价格均出现技术性回升，油价在前期下行压力下短暂企稳。\n供应端来看，\nOPEC+增产决定持续引发市场对于供给过剩的担忧。多家机构预计若该节奏持续推进，OPEC+或于10月前彻底取消220万桶/日的自愿减产配额\n，但各成员国间\n执行分歧\n仍存\n。此外，俄罗斯\n5月ESPO原油出口增长7%，伊拉克凝析油供给增加，委内瑞拉主要炼厂恢复部分运行，也在结构性上增添了供给压力。整体来看，尽管短期存在执行差异与增产矛盾，全球原油供应仍处在逐步扩张通道。\n需求方面，美国成品油库存回升、夏季出行需求未全面启动，令消费预期暂时承压。中国、韩国及意大利等主要经济体前\n4个月原油进口量均有回落，全球原油消费结构的疲软态势已现。不过，新兴市场如印度、日本等地的原油进口同比增长，部分抵消东亚核心市场萎缩压力。此外，\n根据《中美日内瓦经贸会谈联合声明》，中美两国本周就部分商品关税安排达成一致，声明中还提到采取免税措施后，\n“双方将建立机制，继续就经贸关系进行协商”。\n此举有望改善全球制造业和运输链预期，提振中期原油终端需求。整体来看，当前需求基本面仍显脆弱，但边际改善势头开始显现。\n综合来看，当前\n国际贸易环境及\n政策变量等多重因素交织，整体供需矛盾短期内难以扭转，预计短期油价仍将维持区间震荡，波动风险高企。\n截至\n5月6日当周，机构投资者持有ICE的Brent原油期货和期权的净多头头寸为97558手，较上周下跌11.26%；持有NYMEX的WTI原油期货和期权的净多头头寸为143938手，较上周下跌6.55%；机构投资者持有期货与期权净多头头寸大幅减少，表明机构投资者对未来油价走势信心不足。\n现货市场，\n5月9日，迪拜原油价格64.08美元/桶，周环比上涨3.49%；阿曼原油价格63.79美元/桶，周环比上涨2.59%。\n由于贸易流程原因，我国原油进口到岸价格往往比国际市场期货价格和现货价格\n滞后\n。近期国际油价波动的影响，将在后期原油进口到岸价格中逐渐显现。\n中国原油综合进口到岸价格指数编制由海关总署全球贸易监测分析中心和上海石油天然气交易中心合作完成，于\n2019年12月18日以价格形式首次面世，自2020年9月23日起调整为以指数形式发布，以2018年第一日历周为基期（当周中国原油综合进口到岸价格为3114元/吨，价格指数为100）综合反映上一周我国原油进口到岸的价格水平。",
      "type": "news",
      "source": "行业信息平台",
      "publish_time": "2025-05-15T00:00:00",
      "tags": [],
      "link": "https://www.shpgx.com/html/xyzx/20250515/7810.html",
      "basic_info_tags": [
        "行业资讯"
      ],
      "region_tags": [
        "上海"
      ],
      "energy_type_tags": [
        "原油",
        "天然气"
      ],
      "business_field_tags": [
        "市场动态",
        "价格变化",
        "科技创新",
        "国际合作"
      ],
      "beneficiary_tags": [
        "能源企业",
        "政府机构"
      ],
      "policy_measure_tags": [
        "市场监管",
        "技术合作",
        "创新投融资"
      ],
      "importance_tags": [
        "权威发布",
        "国际影响"
      ],
      "created_at": "2025-06-03T07:30:39.283492",
      "updated_at": "2025-06-03T07:30:39.283492",
      "relevance_score": 0.11333333333333333,
      "view_count": 0
    },
    {
      "_id": "683e48e3f50c60f2c9d44116",
      "title": "E-Gas系统：5月12日-18日当周中国LNG进口量约123万吨",
      "content": "中国天然气信息终端（E-Gas系统）发布的实时LNG进口到船数据显示，5月12日-5月18日当周，预估中国通过沿海LNG接收站进口LNG共计18船，进口量约123万吨，前值为138万吨。\n表1：5月12日-5月18日中国LNG进口分析\n数据来源：中国天然气信息终端（E-Gas系统）\n从进口来源国看，5月12日-5月18日当周，中国LNG进口来源国有7个。其中，自澳大利亚进口6船，进口量约39万吨，约占当周进口总量的32%。\n从到货地看，5月12日-5月18日当周，华南地区共接卸6船LNG，长三角地区接卸7船，环渤海地区接卸5船。其中，江苏如东LNG接收站到港3船，共计约25万吨，数量最多。\nE-Gas系统LNG船期预测数据显示，5月19日-5月25日当周，中国将通过沿海LNG接收站进口LNG18船，预计进口量约116万吨。\n表2：5月19日-5月25日中国LNG进口预测\n数据来源：中国天然气信息终端（E-Gas系统）\n中国天然气信息终端（E-Gas系统）是中国经济信息社联合上海石油天然气交易中心打造的一款聚焦能源行业细分领域的垂直信息服务产品，通过整合丰富的行业数据资源，并结合企业的实际需求，开发了LNG现货进口成本估算、国内天然气基础设施地图、LNG国际贸易实时统计等特色功能，致力于为用户提供国内最领先的天然气行业综合信息服务。",
      "type": "news",
      "source": "行业信息平台",
      "publish_time": "2025-05-20T00:00:00",
      "tags": [],
      "link": "https://www.shpgx.com/html/xyzx/20250520/7823.html",
      "basic_info_tags": [
        "行业资讯"
      ],
      "region_tags": [
        "上海",
        "江苏"
      ],
      "energy_type_tags": [
        "液化天然气(LNG)",
        "原油",
        "天然气"
      ],
      "business_field_tags": [
        "市场动态",
        "价格变化",
        "科技创新",
        "国际合作"
      ],
      "beneficiary_tags": [
        "能源企业",
        "政府机构"
      ],
      "policy_measure_tags": [
        "市场监管",
        "技术合作",
        "创新投融资"
      ],
      "importance_tags": [
        "权威发布",
        "国际影响"
      ],
      "created_at": "2025-06-03T07:30:39.283186",
      "updated_at": "2025-06-03T07:30:39.283186",
      "relevance_score": 0.1,
      "view_count": 0
    },
    {
      "_id": "683e48e3f50c60f2c9d44118",
      "title": "E-Gas系统：5月5日-11日当周中国LNG进口量约138万吨",
      "content": "中国天然气信息终端（E-Gas系统）发布的实时LNG进口到船数据显示，5月5日-5月11日当周，预估中国通过沿海LNG接收站进口LNG共计21船，进口量约138万吨，前值为116万吨。\n表1：5月5日-5月11日中国LNG进口分析\n数据来源：中国天然气信息终端（E-Gas系统）\n从进口来源国看，5月5日-5月11日当周，中国LNG进口来源国有7个。其中，自澳大利亚进口8船，进口量约52万吨，约占当周进口总量的38%。\n从到货地看，5月5日-5月11日当周，华南地区共接卸12船LNG，长三角地区接卸5船，环渤海地区接卸4船。其中，深圳大鹏LNG接收站到港3船，共计约22万吨，数量最多。\nE-Gas系统LNG船期预测数据显示，5月12日-5月18日当周，中国将通过沿海LNG接收站进口LNG24船，预计进口量约165万吨。\n表2：5月12日-5月18日中国LNG进口预测\n数据来源：中国天然气信息终端（E-Gas系统）\n中国天然气信息终端（E-Gas系统）是中国经济信息社联合上海石油天然气交易中心打造的一款聚焦能源行业细分领域的垂直信息服务产品，通过整合丰富的行业数据资源，并结合企业的实际需求，开发了LNG现货进口成本估算、国内天然气基础设施地图、LNG国际贸易实时统计等特色功能，致力于为用户提供国内最领先的天然气行业综合信息服务。",
      "type": "news",
      "source": "行业信息平台",
      "publish_time": "2025-05-13T00:00:00",
      "tags": [],
      "link": "https://www.shpgx.com/html/xyzx/20250513/7803.html",
      "basic_info_tags": [
        "行业资讯"
      ],
      "region_tags": [
        "上海",
        "深圳"
      ],
      "energy_type_tags": [
        "液化天然气(LNG)",
        "原油",
        "天然气"
      ],
      "business_field_tags": [
        "市场动态",
        "价格变化",
        "科技创新",
        "国际合作"
      ],
      "beneficiary_tags": [
        "能源企业",
        "政府机构"
      ],
      "policy_measure_tags": [
        "市场监管",
        "技术合作",
        "创新投融资"
      ],
      "importance_tags": [
        "权威发布",
        "国际影响"
      ],
      "created_at": "2025-06-03T07:30:39.283674",
      "updated_at": "2025-06-03T07:30:39.283674",
      "relevance_score": 0.1,
      "view_count": 0
    }
  ],
  "total": 50,
  "page": 1,
  "page_size": 10,
  "has_next": true
}