{"items":[{"_id":"683e40574ac14275a1877118","title":"商务部公布2025年成品油（燃料油）非国营贸易进口允许量申领条件、分配原则及相关程序","content":"\n根据《中华人民共和国货物进出口管理条例》和原外经贸部令2002年第27号（《原油、成品油、化肥国营贸易进口经营管理试行办法》），商务部制定了《2025年成品油（燃料油）非国营贸易进口允许量申领条件、分配原则及相关程序》，现予公布。\n第一条  成品油（燃料油）进口管理\n成品油（燃料油）（以下简称燃料油）进口实行国营贸易管理，同时根据中国加入世界贸易组织议定书相关规定，允许一定数量的非国营贸易进口，由符合非国营贸易进口允许量申领条件的企业在年度进口允许量范围内进口。\n第二条  燃料油非国营贸易进口允许量\n2025年燃料油非国营贸易进口允许量（以下简称燃料油进口允许量）为2000万吨。\n第三条  燃料油非国营贸易进口允许量申领条件\n（一）具有独立的法人资格；\n（二）拥有不低于1万吨的燃料油进口码头或铁路专用线（仅限边疆陆运企业）等接卸设施所有权或使用权；\n（三）拥有库容不低于5万立方米的燃料油储罐或油库所有权或使用权；\n（四）国内银行授信额度不低于2000万美元或1.2亿元人民币；\n（五）近两年无违反国家法律法规的行为，未发生人员重伤或死亡的安全生产事故；\n（六）其他需要考虑的因素。\n第四条 申请报送材料\n（一）企业申请函，包括：公司基本情况、符合申请条件的说明；企业法人营业执照副本复印件（须加盖申请企业公章）；申请企业的海关编码、企业代码材料;\n（二）拥有不低于1万吨码头或铁路专用线（仅限边疆陆运企业）的申请企业提供相关产权证明文件；不拥有码头或铁路专用线（仅限边疆陆运企业）的企业需提供码头或铁路专用线（仅限边疆陆运企业）等的使用权协议；\n（三）拥有不低于5万立方米燃料油储罐或油库的申请企业提供相关产权证明文件；不拥有燃料油储罐或油库的企业需提供签订燃料油储罐或油库使用权协议；\n（四）国内银行出具的授信证明文件；\n（五）近两年无违反国家法律法规行为、未发生人员重伤或死亡的安全生产事故的企业承诺书。\n以上申请材料当年有效。\n第五条 审核和公示\n新申请企业可根据本公告有关规定，向所在省、自治区、直辖市及计划单列市、新疆生产建设兵团商务主管部门（以下称省级商务主管部门）提交2025年燃料油非国营贸易进口允许量申请。\n省级商务主管部门对企业申请材料进行初步审核，确保企业提交材料符合公告要求，并对企业合法合规经营和安全生产情况进行初步核查。有关审核情况在上报汇总申请材料中单独列明，并于2025年3月31日前报送商务部（报送地址：北京市东城区东长安街2号商务部行政事务服务大厅15号窗口；联系电话：010-65197976；邮政编码：100731）。封装申请材料的信封或者物流纸箱的表面需注明“事项：燃料油”字样。中央企业下属企业，由中央企业统筹审核并将申请及有关材料按上述时间报送商务部（寄送要求同上）。\n商务部对企业申请进行审核，并在网站公示经审核符合条件的企业名单，公示期5个工作日。公示期间，对公示名单有异议的，可向商务部提请复核。公示通过的企业纳入已符合燃料油非国营贸易进口允许量申领条件的企业名单，可按程序申领燃料油进口允许量。\n连续两年没有实际进口燃料油的企业，从符合非国营贸易进口允许量申领条件的企业名单中移除。商务部定期公布已符合燃料油非国营贸易进口允许量申领条件的企业名单（2025年名单附后）。2023—2024年（截至10月）没有实际进口燃料油的企业，从本次名单中移除。\n第六条 进口允许量先来先领\n2025年燃料油进口允许量实行“先来先领”的分配方式。符合非国营贸易进口允许量申领条件的企业根据实际进口需求申领燃料油进口允许量，其可申领的起始数量根据2024年燃料油进口允许量完成情况、许可证核销率设定。在起始申领数量内企业可分次申领燃料油自动进口许可证。企业报关进口或将未使用完毕的自动进口许可证退回后，可在不超过起始数量的范围内再次申领自动进口许可证，直至燃料油进口允许量总量申领完毕。\n第七条 2025年起始进口允许量\n（一）2024年燃料油许可证核销率80%且起始允许量完成率80%以上的企业，2025年起始进口允许量上调10万吨；\n（二）2024年燃料油许可证核销率50%-79%且起始允许量完成率50%以上的企业，2025年起始进口允许量上调5万吨；\n（三）2024年燃料油许可证核销率25%以下的企业，2025年扣减50%的起始进口允许量；\n（四）符合燃料油非国营贸易进口允许量申领条件的新企业，2025年起始进口允许量为5万吨；\n（五）2025年燃料油起始进口允许量最高不超过30万吨，最低不低于5万吨。\n第八条 燃料油自动进口许可证的申领\n企业向商务部配额许可证事务局和相关省级发证机构申领燃料油自动进口许可证时须提供以下材料原件或副本：\n（一）《自动进口许可证申请表》；\n（二）具有法律效力的进口合同或委托代理的进口合同；\n（三）相关发证机构要求出具的其他材料。\n第九条  燃料油自动进口许可证的受理及发放\n商务部配额许可证事务局和各地省级发证机构负责受理企业申领燃料油自动进口许可证，在申请材料齐全后5个工作日内为符合条件的企业签发自动进口许可证。\n第十条  燃料油自动进口许可证有效期、更改和遗失\n燃料油自动进口许可证自签发之日起3个月内有效，最迟不得超过2025年12月31日。需要延期或者变更的，需重新办理，旧证撤销后换发新证需在备注栏中注明原证号。自动进口许可证遗失，企业应在10个工作日内向原发证机构和原证所列报关口岸办理挂失手续。核实无误后，原发证机构签发新证并在备注栏中注明原证号。\n第十一条  未使用燃料油自动进口许可证的退还\n企业将未使用或未使用完毕的燃料油自动进口许可证在有效期满后10个工作日内退还原发证机构。企业退回的未使用允许量归入全国未使用燃料油允许量，供企业先来先领。\n第十二条 未使用燃料油进口允许量的公布\n燃料油自动进口许可证申领数量超过年度允许量90%时，商务部配额许可证事务局通过适当方式公布燃料油自动进口许可证剩余数量，方便企业做好进口业务安排。\n第十三条 企业的相关责任\n企业需对所报送燃料油非国营贸易资格备案和燃料油自动进口许可证的申请材料真实性负责，并出具加盖企业公章的承诺函。企业如有伪造、变造报送和申领材料行为的，将追究其法律责任。\n伪造、变造或者买卖自动进口许可证的，将依法追究其法律责任。\n对有上述违法行为的企业，两年内将不予受理其燃料油进口业务申请。\n第十四条  其他\n自2024年12月31日起，各发证机构受理燃料油自动进口许可证申请并发放2025年燃料油自动进口许可证。\n第十五条  本公告由商务部负责解释。\n附件：2025年燃料油非国营贸易进口企业名单","type":"policy","source":"国家能源局","publish_time":"2025-01-03T00:00:00","tags":[],"link":"https://www.shpgx.com/html/zcsd/20250103/7262.html","basic_info_tags":["政策法规"],"region_tags":["北京市","北京"],"energy_type_tags":["原油"],"business_field_tags":["民营经济发展","市场准入优化","投资支持","科技创新","公平竞争"],"beneficiary_tags":["民营企业"],"policy_measure_tags":["投资支持","市场准入措施","科技创新"],"importance_tags":["国家级","重要政策"],"created_at":"2025-06-03T07:30:39.282880","updated_at":"2025-06-03T07:30:39.282880","relevance_score":0.25160000000000005,"view_count":0},{"_id":"683e40574ac14275a187711a","title":"世界燃气大会首次落地中国 各方代表共商绿色发展合作未来","content":"第29届世界燃气大会20日在北京开幕，本届大会以“赋能可持续未来”为主题，于5月20日至23日举行，将搭建起“技术共享、产业共融、发展共商”的重要合作平台，成为践行“全球发展倡议”、深化世界能源治理合作的重要舞台，更是展现中国式现代化首都实践、推动高水平对外开放的重要窗口。\n世界燃气大会首次落地中国并且选择在北京，充分体现了国际社会对中国能源转型实践的高度认可，彰显了北京作为国际交往中心和科技创新中心的全球影响力。当前，北京市正以“首善标准”打造全球能源合作新高地。\n“北京市天然气年消费在能源结构中占比超过35%，成为全球天然气消费量第二大城市。”北京市委副书记、市长殷勇表示，北京正在加快建设国际绿色经济标杆城市，将夯实天然气安全稳定供应基础，加快构建清洁低碳、安全高效的新型能源体系。不断探索能源结构低碳发展路径，大力提升可再生能源供热规模，推进供热热源由天然气为主向天然气与可再生能源多能耦合发展。\n国家能源局副局长万劲松表示，天然气作为一种稳定、清洁、高效的低碳化石能源，与可再生能源形成良性互补，在保障能源供应多元化、优化能源消费结构、推动能源绿色低碳转型进程中发挥着重要作用。万劲松提出以下倡议：以国计民生为基础，进一步提升能源安全保障供应能力；以绿色低碳为目标，持续推进能源清洁低碳转型；以数智赋能为突破，构建智慧高效能源体系；以开放合作为纽带，共同提升全球能源治理水平。\n此外，大会专门设立“绿色北京会客厅”。北京节能环保中心能效监测部部长刘大为介绍，“绿色北京会客厅”全面呈现过去十年北京在生态、产业、能源、交通等十个领域绿色发展取得的突出成效，以及未来十年北京打造国际绿色经济标杆城市工作目标和建设路径。\n“会客厅作为各方代表了解北京绿色可持续发展的重要窗口，期待与各方代表围绕能源技术创新发展、先进能源产业合作、能源绿色转型进行对接交流，与全球行业伙伴共商绿色未来发展合作大计。”刘大为说。","type":"news","source":"行业信息平台","publish_time":"2025-05-21T00:00:00","tags":[],"link":"https://www.shpgx.com/html/xyzx/20250521/7827.html","basic_info_tags":["行业资讯"],"region_tags":["北京市","北京"],"energy_type_tags":["天然气","电力"],"business_field_tags":["市场动态","价格变化","科技创新","国际合作"],"beneficiary_tags":["能源企业","政府机构"],"policy_measure_tags":["市场监管","技术合作","创新投融资"],"importance_tags":["权威发布","国际影响"],"created_at":"2025-06-03T07:30:39.283151","updated_at":"2025-06-03T07:30:39.283151","relevance_score":0.0945,"view_count":0},{"_id":"683e40574ac14275a1877119","title":"大港油田储气库群加快扩容 为京津冀冬季保供蓄能","content":"大港油田储气库群正在加快扩容建设，为即将到来的冬季天然气保供做好准备。作为华北地区重要的天然气储备基地，大港储气库群承担着京津冀地区冬季调峰保供的重要任务。预计新增储气能力将有效缓解冬季用气紧张局面，为区域能源安全提供坚实保障。","type":"news","source":"上海石油天然气交易中心","publish_time":"2025-05-29T00:00:00","tags":[],"link":"https://www.shpgx.com/html/xyzx/20250529/7844.html","basic_info_tags":["行业资讯"],"region_tags":["北京","天津","河北","华北地区","京津冀"],"energy_type_tags":["天然气"],"business_field_tags":["储气库","冬季保供"],"beneficiary_tags":["京津冀用户","城市燃气公司"],"policy_measure_tags":["储气库建设","保供措施"],"importance_tags":["区域级","民生保障"],"created_at":"2025-06-03T07:30:39.284071","updated_at":"2025-06-03T07:30:39.284071","relevance_score":0.08960000000000001,"view_count":0},{"_id":"683e40574ac14275a187711e","title":"关于开展安平管道天然气竞价交易的公告","content":"关于开展安平管道天然气竞价交易的公告交易中心办〔2025〕第54号为进一步响应国家天然气市场化改革要求,服务行业健康持续稳定发展,上海石油天然气交易中心(下称“上海交易中心”)拟定于2025年5月26日通过上海交易中心交易平台开展6月份安平管道天然气竞价交易。具体公告如下:\n一、交易时间\n2025年5月26日 10:00-11:00。\n交易公告链接地址：https://www.shpgx.com/html/jygg/20250520/7825.html\n二、产品介绍\n1.产品名称:天然气。\n2.卖方:于报名审核通过后进行通知。\n3.交易量:2000万立方米。\n4.交收期:线上成交后第5个自然日8:00起至2025年\n6月30日8:00(如遇特殊情况,以双方协商为准)。\n5.交收地:国家管网安平枢纽点。\n6.交收方式:自主交收。\n7.气质要求:\n天然气符合中华人民共和国国家标准《天然气》\n(GB17820-2018)中的天然气标准。\n8.相关要求:\n买卖双方原则上应按成交量日均值均衡供用气。\n三、交易参数\n通过上海交易中心交易系统进入“竞价交易”-“管道天\n然气” - “安平管道气”交易专场。\n\n类别 参数 说明\n交易模式 竞价交易 竞价交易-竞买交易\n挂单量 2000万方 \n最大摘单量 2000万方 允许用户单笔最大摘单量\n最小摘单量 30万方 允许用户单笔最小摘单量\n递增单位 1万方 允许单个用户单笔摘单的递增量\\n只能以此单位的整数倍摘单。\n竞拍底价 2.45元/方 含税价格\n最小加价幅度 0.001元/方 单笔加价的最小值\n最大加价幅度 0.5元/方 单笔加价的最大值\n出价单位 0.001元/方 出价需为0.001 的整数倍\n封顶价 不限 \n成交价格  含税价格\n倒计时和成交规则 5分钟 挂单量全部出价后开始倒计时,倒计时5分钟,倒\\n计时期间有新报价,倒计时重新开始。倒计时期间\\n内无新报价或交易节结束时,交易结束,倒计时强\\n制终止,按照“价格优先,时间优先”顺序成交。\n交收期 线上成交后第5个自然日 8:00\\n起至2025年6月30日8:00\\n(如遇特殊情况,以双方协商为准) \n交收地 国家管网安平枢纽点 \n交收方式 自主交收 \n\n四、交易资格 1.申请企业须为上海交易中心国内交易商会员,且已完 成银行第三方存管签约。 2.申请企业应具有良好的信用记录,不在失信被执行人 企业名单之列。 3.申请企业应具有完整的天然气交易、交收、结算及风 险管理的体系和团队。 4.申请报名 有意向参与此次交易的企业请将附件申请表(加盖公 章)的扫描件发送至以下邮箱:PNG@shpgx.com。报名 是否成功以上海交易中心邮件回复为准。 报名截止时间为2025年5月25日18:00时。 5.入围通知 上海交易中心收到企业申请表后,根据提交的时间顺 序开展资质审核,并于5月25日 18:00时之前通过邮件 发送审核通过的入围通知。收到入围通知的企业请于本公 告公布的交易时间在上海交易中心的交易系统内按时参加 交易。 五、交易服务费及保证金 参与交易的交易商会员需提前入金,将资金转入对应的 交易结算账户,确保交易结算账户可用余额充足。交易服务 费和保证金的入金时间为交易日的 09:00至15:00,且均以 现金方式缴纳。 (一)交易服务费 交易手续费=交易总金额$$×$$千分之一,交易成交金额=成 交单价$$×$$成交量),双边收取。\n(二)交易保证金\n交易保证金=交易总金额×10%,交易成交金额=成交单价×成交量),双边收取。\n交易结束后,未达成交易的客户交易保证金将自动释放,可操作出金;达成交易的客户交易保证金,待双方合同履约结束后,由中心进行释放。\n五、交收结算方式\n结算价格按照线上实际成交价格执行。交易达成后,电子交易系统将自动生成包括结算价格的电子交易合同,卖方依据电子交易合同向买方交付天然气。\n六、交易准备工作\n(一)已开户客户\n已开户客户请查阅上海交易中心网站(https://www.shpgx.com)-会员中心-下载中心,下载最新交易系统客户端,按照操作手册熟悉交易系统。网址为https://www.shpgx.com/html/download/.\n(二)未开户客户注册流程\n1.注册。登录上海交易中心官网-会员中心-会员注册,填写注册相关信息,跟踪审批进度。联系电话:任老师\n17721005907;\n2.账号绑定及入金。选择银行账户进行签约操作,向系统入金,确保保证金及服务费金额充足。出入金教程可登录上海交易中心官网-入市指南-操作指南,根据操作教程完成银行账户签约及入金,确保交易账号余额足以支付交易保证金及服务费。联系电话:顾老师15800744768,马老师15862884400;\n(三)交易保证金\n交易保证金=交易总金额×10%,交易成交金额=成交单价×成交量),双边收取。\n交易结束后,未达成交易的客户交易保证金将自动释放,可操作出金;达成交易的客户交易保证金,待双方合同履约结束后,由中心进行释放。\n七、交收结算方式\n结算价格按照线上实际成交价格执行。交易达成后,电子交易系统将自动生成包括结算价格的电子交易合同,卖方\n依据电子交易合同向买方交付天然气。\n八、交易准备工作\n(一)已开户客户\n已开户客户请查阅上海交易中心网站\n(https://www.shpgx.com)-会员中心-下载中心,下载最新交易系统客户端,按照操作手册熟悉交易系统。网址为https://www.shpgx.com/html/download/.\n(二)未开户客户注册流程\n1.注册。登录上海交易中心官网-会员中心-会员注册,填写注册相关信息,跟踪审批进度。联系电话:任老师17721005907;\n2.账号绑定及入金。选择银行账户进行签约操作,向系统入金,确保保证金及服务费金额充足。出入金教程可登录上海交易中心官网-入市指南-操作指南,根据操作教程完成银行账户签约及入金,确保交易账号余额足以支付交易保证金及服务费。联系电话:顾老师15800744768,马老师15862884400;\n本次交易本着公平、公正、公开原则,交易解释权归上 海交易中心所有。 如需进一步咨询,欢迎拨打: 上海交易中心: 陶鹏,159 6971 9088. 上海石油天然气交易中心 2025年5月20日","type":"announcement","source":"安平管道天然气交易中心","publish_time":"2025-05-20T00:00:00","tags":[],"link":"https://www.shpgx.com/html/jygg/20250520/7825.html","basic_info_tags":["交易公告"],"region_tags":["上海"],"energy_type_tags":["管道天然气(PNG)","原油","天然气"],"business_field_tags":["交易信息"],"beneficiary_tags":["LNG交易方"],"policy_measure_tags":["竞价规则"],"importance_tags":["常规公告"],"created_at":"2025-06-03T07:30:39.283758","updated_at":"2025-06-03T07:30:39.283758","relevance_score":0.028888888888888888,"view_count":0},{"_id":"683e40574ac14275a187711b","title":"中国石油发布3000亿参数昆仑大模型","content":"中国石油正式发布3000亿参数规模的昆仑大模型，这是石油天然气行业首个千亿级参数大模型。该模型将在勘探开发、炼化生产、销售服务等多个业务场景中应用，通过AI技术提升作业效率和决策水平。专家表示，大模型技术的应用将推动传统能源行业数字化转型，为行业发展注入新动能。","type":"news","source":"上海石油天然气交易中心","publish_time":"2025-05-30T00:00:00","tags":[],"link":"https://www.shpgx.com/html/xyzx/20250530/7848.html","basic_info_tags":["行业资讯"],"region_tags":["中国","全国"],"energy_type_tags":["原油","天然气"],"business_field_tags":["人工智能","数字化转型"],"beneficiary_tags":["中国石油","能源企业"],"policy_measure_tags":["技术创新","AI应用"],"importance_tags":["行业级","技术突破"],"created_at":"2025-06-03T07:30:39.283885","updated_at":"2025-06-03T07:30:39.283885","relevance_score":0.02,"view_count":0},{"_id":"683e40574ac14275a1877120","title":"国际能源署预测今年全球石油需求增长放缓","content":"国际能源署15日发布月度石油市场报告称，受经济下行和创下新高的电动车销量影响，预计今年剩余时间全球石油需求增速将放缓至日均65万桶，低于一季度日均99万桶的增速。\n报告指出，全球石油需求增长放缓的迹象可能已经显现，并将受到密切关注。但该机构也表示，由于经济预期上升和油价下跌将支持消费，预计今年全球石油需求增长平均增速为日均74万桶，而2026年全球石油需求增长平均增速为日均76万桶，均较上月估值有所上调。\n供应方面，国际能源署表示，今年全球石油供应增幅将大大超过需求增幅。报告预计，今年全球石油供应增长为日均160万桶，较上月预测上调了日均近40万桶。","type":"news","source":"行业信息平台","publish_time":"2025-05-19T00:00:00","tags":[],"link":"https://www.shpgx.com/html/xyzx/20250519/7819.html","basic_info_tags":["行业资讯"],"region_tags":[],"energy_type_tags":["原油"],"business_field_tags":["市场动态","价格变化","科技创新","国际合作"],"beneficiary_tags":["能源企业","政府机构"],"policy_measure_tags":["市场监管","技术合作","创新投融资"],"importance_tags":["权威发布","国际影响"],"created_at":"2025-06-03T07:30:39.283276","updated_at":"2025-06-03T07:30:39.283276","relevance_score":0.02,"view_count":0},{"_id":"683e40574ac14275a187711c","title":"欧盟拟立法全面禁止进口俄气","content":"欧盟委员会近日宣布，将于下个月提出法律措施，计划在2027年年底前全面停止进口俄罗斯管道天然气和液化天然气（LNG）。\n欧盟能源和住房事务委员丹·约根森表示：“自2022年2月俄乌冲突爆发以来，欧盟从俄罗斯购买化石燃料的支出已超过对乌克兰的援助金额，这种情况必须改变。”根据计划，欧盟委员会将于6月提交两项法律提案：一是要求在2025年年底前禁止根据新合同和现货合同进口俄罗斯天然气；二是在2027年年底前终止所有现有合同的俄罗斯天然气进口。\n数据显示，2023年欧盟从俄罗斯进口了316.2亿立方米管道天然气和200.5亿立方米LNG，占其天然气总消费量的18%。尽管此前欧盟已对俄罗斯煤炭和大部分原油实施进口禁令，但由于斯洛伐克和匈牙利的反对，天然气贸易一直得以延续。\n欧盟委员会表示，逐步淘汰俄罗斯天然气对欧洲能源价格的影响有限。这是因为从2026年开始，美国、卡塔尔等国的新LNG项目将陆续投产，可确保供应安全。此外，根据要求，各成员国需制定详细的国家计划，说明如何从其能源结构中剔除俄罗斯的天然气、核能和石油。","type":"news","source":"行业信息平台","publish_time":"2025-05-21T00:00:00","tags":[],"link":"https://www.shpgx.com/html/xyzx/20250521/7829.html","basic_info_tags":["行业资讯"],"region_tags":[],"energy_type_tags":["液化天然气(LNG)","管道天然气(PNG)","原油"],"business_field_tags":["市场动态","价格变化","科技创新","国际合作"],"beneficiary_tags":["能源企业","政府机构"],"policy_measure_tags":["市场监管","技术合作","创新投融资"],"importance_tags":["权威发布","国际影响"],"created_at":"2025-06-03T07:30:39.283092","updated_at":"2025-06-03T07:30:39.283092","relevance_score":0.017333333333333333,"view_count":0},{"_id":"683e40574ac14275a187711f","title":"国家统计局：1—4月份，规模以上工业企业天然气产量874亿立方米，同比增长5.3%","content":"4月份，规模以上工业（以下简称规上工业）原煤、原油、电力生产增速回落，天然气生产增速加快。\n一、原煤、原油和天然气生产及相关情况\n原煤生产稳定增长。\n4\n月份，规上工业原煤产量\n3.9\n亿吨，同比增长\n3.8%\n，增速比\n3\n月份回落\n5.8\n个百分点；日均产量\n1298\n万吨。\n1—4月份，规上工业原煤产量15.8亿吨，同比增长6.6%。\n原油生产保持增长。4月份，规上工业原油产量1772万吨，同比增长1.5%，增速比3月份放缓2.0个百分点；日均产量59.1万吨。\n1—4月份，规上工业原油产量7181万吨，同比增长1.2%。\n原油加工有所放缓。4月份，规上工业加工原油5803万吨，同比下降1.4%，3月份为增长0.4%；日均加工193.4万吨。\n1—4月份，规上工业加工原油24027万吨，同比增长0.8%。\n天然气生产增速加快。4月份，规上工业天然气产量215亿立方米，同比增长8.1%，增速比3月份加快3.1个百分点；日均产量7.2亿立方米。\n1—4月份，规上工业天然气产量874亿立方米，同比增长5.3%。\n二、电力生产情况\n规上工业电力生产平稳增长。4月份，规上工业发电量7111亿千瓦时，同比增长0.9%，增速比3月份放缓0.9个百分点；日均发电237.0亿千瓦时。1—4月份，规上工业发电量29840亿千瓦时，同比增长0.1%，扣除天数原因，日均发电量同比增长0.9%。\n分品种看，4月份，规上工业火电降幅持平，水电由增转降，核电增速放缓，风电、太阳能发电增速加快。其中，规上工业火电同比下降2.3%，降幅与3月份持平；规上工业水电下降6.5%，3月份为增长9.5%；规上工业核电增长12.4%，增速放缓10.6个百分点；规上工业风电增长12.7%，增速加快4.5个百分点；规上工业太阳能发电增长16.7%，增速加快7.8个百分点。\n附注\n1.指标解释\n日均产品产量：是以当月公布的规模以上工业企业总产量除以该月日历天数计算得到。\n2.统计范围\n报告中的产量数据统计口径均为规模以上工业，其统计范围为年主营业务收入2000万元及以上的工业企业。\n由于规模以上工业企业范围每年发生变化，为保证本年数据与上年可比，计算产品产量等各项指标同比增长速度所采用的同期数与本期的企业统计范围相一致，和上年公布的数据存在口径差异。","type":"news","source":"行业信息平台","publish_time":"2025-05-20T00:00:00","tags":[],"link":"https://www.shpgx.com/html/xyzx/20250520/7822.html","basic_info_tags":["行业资讯"],"region_tags":[],"energy_type_tags":["原油","天然气","电力"],"business_field_tags":["市场动态","价格变化","科技创新","国际合作"],"beneficiary_tags":["能源企业","政府机构"],"policy_measure_tags":["市场监管","技术合作","创新投融资"],"importance_tags":["权威发布","国际影响"],"created_at":"2025-06-03T07:30:39.283216","updated_at":"2025-06-03T07:30:39.283216","relevance_score":0.017333333333333333,"view_count":0},{"_id":"683e40574ac14275a1877121","title":"油价持续下探 天然气市场波澜几何？","content":"近期，国际原油市场经历了显著的价格下滑。在刚刚过去的4月，国际油价创下3年多来的最大单月跌幅。其中，WTI油价4月跌幅超18%，布伦特油价下跌超15%。在国际油价持续下跌的背景下，天然气市场却呈现出别样的景象。5月8日，纽约商品交易所（NYMEX）天然气6月期货价格逆势上涨，涨幅超4.5%，报3.621美元/百万英热单位。在原油价格接连下挫的阴云笼罩下，天然气市场为何走出独立行情？\n定价机制差异 油气价格“分道扬镳”\n由于定价机制的差异，石油和天然气的价格走向常常出现“分道扬镳”的现象。石油的定价以期货市场为主导，像布伦特原油和WTI原油，其价格受到全球地缘政治局势、“欧佩克+”产量决策、美元汇率波动等众多复杂因素的左右，对各类短期信息极为敏感，波动较为频繁。\n天然气市场则呈现出明显的区域分割特征。在北美，亨利港天然气价格由本土的供需关系决定，如页岩气产量的变化、供暖需求的波动等。当美国本土页岩气产量大幅增长时，亨利港天然气价格往往会受到下行压力；反之，在冬季供暖需求旺季，价格则会上升。欧洲的天然气价格虽也是市场化定价，但地缘冲突、LNG进口规模以及可再生能源的发电情况都会对其产生显著影响。乌克兰危机期间，欧洲LNG进口规模的变化，就使欧洲天然气基准TTF价格波动剧烈。而今年，受需求增加及地缘政治因素影响，欧洲天然气价格持续高企。数据显示，今年4月，欧洲平均天然气价格较2024年4月上涨28%。亚太地区方面，过去几年，由于大部分天然气长贸合同与油价挂钩，其天然气价格受油价波动影响较大。但近年来，随着现货市场的发展，亚洲天然气价格受区域供需的影响越来越大，与油价的联动性逐渐减弱。2025年以来，亚洲部分国家因工业复苏，对天然气的需求增加，使得该地区天然气价格走势与油价背离。例如，国际油价在今年4月持续下跌，但亚洲液化天然气价格重要指标JKM的价格4月却环比上涨10%。\n供需逻辑不同 油气发展趋势分化\n从供需基本面来看，石油和天然气的市场逻辑不尽相同。石油供应方面，“欧佩克+”能够通过调整减产或增产策略，在相对短的时间内对全球石油供应进行调控。例如，近期“欧佩克+”增产计划的实施，就使得全球石油供应增加，对油价形成下行压力。\n天然气的供应则存在诸多限制。一方面，LNG项目从规划筹备到最终投产，通常需要5—7年的时间，投资周期长使其短期供应缺乏弹性。另一方面，地缘冲突等因素对天然气供应的影响更为直接。比如乌克兰危机导致俄罗斯对欧洲的天然气供应大幅减少，欧洲只能加大LNG进口力度，但全球LNG贸易的灵活性有限，难以迅速填补供应缺口。即便在油价下跌的情况下，天然气的供应结构也不会因此而迅速改变。美国页岩气产量虽然受到油价下跌的一定冲击，但其钻机设备和从业人员由页岩油向页岩气开采的转移，在一定程度上维持了天然气的产量稳定。根据贝克休斯5月2日发布的数据，美国石油活跃钻井数量在当周减少了4个，但天然气钻井数量却增加了2个。这也表明，油价下跌对天然气供应的影响并非简单的线性关系。\n从需求端来看，石油需求主要集中在交通和工业领域，容易受到经济周期波动和新能源替代的影响。当经济增长放缓，如当前全球经济面临衰退预期时，石油需求就会相应减少；同时，随着电动汽车等新能源交通工具的普及，石油在交通领域的需求也被逐步替代。\n天然气的需求则呈现出明显的季节性特征，受发电和供暖需求影响，冬季的天然气需求会大幅增加。同时，在能源转型的大背景下，天然气作为相对清洁的化石能源，被视为煤炭和石油的替代品，其需求增长具有一定的韧性。随着全球对清洁能源的需求不断上升，天然气作为过渡性能源的地位愈发重要。以欧洲为例，天然气发电逐渐取代煤炭发电，天然气需求持续上升。因此，全球天然气需求的上升趋势与石油需求受经济下行和新能源替代影响而下降的趋势有所不同。\n金融属性有别 油气价格关联趋弱\n在能源市场中，天然气和石油在某些领域存在相互替代的关系。例如，在工业燃料和发电领域，油价下跌可能会导致一些工业用户从使用天然气转向使用石油，从而减少对天然气的需求，导致两者价格出现负相关。但从长远来看，在全球能源转型的大趋势下，天然气凭借其低碳排放的优势，被广泛用于替代煤炭和石油，以减少碳排放，其价格更多地受到自身供需和能源政策的影响。这使得天然气的价格驱动逻辑逐渐独立于石油，两者的差异愈发明显。\n除此之外，石油和天然气的金融属性也有所不同。石油的金融属性较强，其期货市场发展成熟，吸引了大量投机资金参与，对冲基金等金融机构的持仓变化会直接影响油价走势。同时，宏观经济预期和市场风险情绪也会对油价产生较大冲击。当股市暴跌或经济数据不佳时，投资者往往会抛售石油等风险资产，导致油价下跌。相比之下，天然气的金融属性稍弱，其期货市场规模相对较小，尤其是在亚太地区。天然气价格更多地依赖于实物供需状况，如管道气的输送量、LNG船期安排等，以及天气变化对供暖和制冷需求的影响。在北美地区，冬季的寒潮会导致天然气供暖需求大幅增加，从而推动天然气价格上涨，这种价格变化与石油市场的金融波动关联度较低。历史数据也显示，在过去的油价下跌周期中，天然气价格并未完全跟随油价变动，而是更多地受自身供需和天气因素的影响。\n总体而言，本轮全球油价连续下跌对全球天然气市场虽有一定影响，但影响有限。未来，随着天然气市场化改革的深入推进，特别是亚太地区现货市场的不断发展壮大，以及全球能源转型进程的加速，天然气与石油价格的联动性可能会进一步减弱，天然气市场将更多地依据自身的供需关系、基础设施建设、政策导向等因素来决定价格走势和市场格局。","type":"news","source":"行业信息平台","publish_time":"2025-05-16T00:00:00","tags":[],"link":"https://www.shpgx.com/html/xyzx/20250516/7813.html","basic_info_tags":["行业资讯"],"region_tags":[],"energy_type_tags":["液化天然气(LNG)","管道天然气(PNG)","原油"],"business_field_tags":["市场动态","价格变化","科技创新","国际合作"],"beneficiary_tags":["能源企业","政府机构"],"policy_measure_tags":["市场监管","技术合作","创新投融资"],"importance_tags":["权威发布","国际影响"],"created_at":"2025-06-03T07:30:39.283432","updated_at":"2025-06-03T07:30:39.283432","relevance_score":0.017333333333333333,"view_count":0},{"_id":"683e40574ac14275a187711d","title":"E-Gas系统：5月12日-18日当周中国LNG进口量约123万吨","content":"中国天然气信息终端（E-Gas系统）发布的实时LNG进口到船数据显示，5月12日-5月18日当周，预估中国通过沿海LNG接收站进口LNG共计18船，进口量约123万吨，前值为138万吨。\n表1：5月12日-5月18日中国LNG进口分析\n数据来源：中国天然气信息终端（E-Gas系统）\n从进口来源国看，5月12日-5月18日当周，中国LNG进口来源国有7个。其中，自澳大利亚进口6船，进口量约39万吨，约占当周进口总量的32%。\n从到货地看，5月12日-5月18日当周，华南地区共接卸6船LNG，长三角地区接卸7船，环渤海地区接卸5船。其中，江苏如东LNG接收站到港3船，共计约25万吨，数量最多。\nE-Gas系统LNG船期预测数据显示，5月19日-5月25日当周，中国将通过沿海LNG接收站进口LNG18船，预计进口量约116万吨。\n表2：5月19日-5月25日中国LNG进口预测\n数据来源：中国天然气信息终端（E-Gas系统）\n中国天然气信息终端（E-Gas系统）是中国经济信息社联合上海石油天然气交易中心打造的一款聚焦能源行业细分领域的垂直信息服务产品，通过整合丰富的行业数据资源，并结合企业的实际需求，开发了LNG现货进口成本估算、国内天然气基础设施地图、LNG国际贸易实时统计等特色功能，致力于为用户提供国内最领先的天然气行业综合信息服务。","type":"news","source":"行业信息平台","publish_time":"2025-05-20T00:00:00","tags":[],"link":"https://www.shpgx.com/html/xyzx/20250520/7823.html","basic_info_tags":["行业资讯"],"region_tags":["上海","江苏"],"energy_type_tags":["液化天然气(LNG)","原油","天然气"],"business_field_tags":["市场动态","价格变化","科技创新","国际合作"],"beneficiary_tags":["能源企业","政府机构"],"policy_measure_tags":["市场监管","技术合作","创新投融资"],"importance_tags":["权威发布","国际影响"],"created_at":"2025-06-03T07:30:39.283186","updated_at":"2025-06-03T07:30:39.283186","relevance_score":0.015294117647058824,"view_count":0}],"total":50,"page":1,"page_size":10,"has_next":true}