{"items":[{"_id":"683e405d4ac14275a1877122","title":"最大储气能力可达5.8亿方 国内最大半地下式LNG储罐预计今年供暖季投入使用","content":"近日，国家管网集团深圳液化天然气应急调峰站项目接收站一期工程通过工程中交验收，该项目预计今年供暖季投入使用。\n该项目是国家能源局、广东省、深圳市的重大项目，是全国天然气“一张网”和“南气北送”互联互通工程的重要组成部分。项目占地面积25.44公顷，是国内外同等规模LNG接收站项目中占地面积最小的，为用地集约高效的典范工程。接收站工程一期建设两座20万立方米深基坑下沉式LNG储罐，是国内最大半地下式储罐，投产后最大储气能力达5.8亿方。同时，该项目以建设绿色环保和谐岸线为目标，创造性地设计了“绿色和谐海岸带”。\n深圳LNG项目接收站一期工程通过中交验收，标志着深圳液化天然气应急调峰站项目接收站一期工程完成建设任务，实现了重大里程碑节点。该项目投运后将深度融入粤港澳大湾区能源供应网络，以稳定可靠的液化天然气资源，为粤、港、澳三地持续输送绿色动能。此举不仅有助于优化区域能源结构，助力构建生态友好、可持续的现代化能源体系，更将有效促进节能减排目标落地，为推动大湾区经济社会高质量发展注入强劲动力。","type":"news","source":"行业信息平台","publish_time":"2025-05-14T00:00:00","tags":[],"link":"https://www.shpgx.com/html/xyzx/20250514/7804.html","basic_info_tags":["行业资讯"],"region_tags":["深圳","广东省"],"energy_type_tags":["液化天然气(LNG)","管道天然气(PNG)","天然气"],"business_field_tags":["市场动态","价格变化","科技创新","国际合作"],"beneficiary_tags":["能源企业","政府机构"],"policy_measure_tags":["市场监管","技术合作","创新投融资"],"importance_tags":["权威发布","国际影响"],"created_at":"2025-06-03T07:30:39.283645","updated_at":"2025-06-03T07:30:39.283645","relevance_score":0.22200000000000003,"view_count":0},{"_id":"683e405d4ac14275a1877123","title":"E-Gas系统：5月5日-11日当周中国LNG进口量约138万吨","content":"中国天然气信息终端（E-Gas系统）发布的实时LNG进口到船数据显示，5月5日-5月11日当周，预估中国通过沿海LNG接收站进口LNG共计21船，进口量约138万吨，前值为116万吨。\n表1：5月5日-5月11日中国LNG进口分析\n数据来源：中国天然气信息终端（E-Gas系统）\n从进口来源国看，5月5日-5月11日当周，中国LNG进口来源国有7个。其中，自澳大利亚进口8船，进口量约52万吨，约占当周进口总量的38%。\n从到货地看，5月5日-5月11日当周，华南地区共接卸12船LNG，长三角地区接卸5船，环渤海地区接卸4船。其中，深圳大鹏LNG接收站到港3船，共计约22万吨，数量最多。\nE-Gas系统LNG船期预测数据显示，5月12日-5月18日当周，中国将通过沿海LNG接收站进口LNG24船，预计进口量约165万吨。\n表2：5月12日-5月18日中国LNG进口预测\n数据来源：中国天然气信息终端（E-Gas系统）\n中国天然气信息终端（E-Gas系统）是中国经济信息社联合上海石油天然气交易中心打造的一款聚焦能源行业细分领域的垂直信息服务产品，通过整合丰富的行业数据资源，并结合企业的实际需求，开发了LNG现货进口成本估算、国内天然气基础设施地图、LNG国际贸易实时统计等特色功能，致力于为用户提供国内最领先的天然气行业综合信息服务。","type":"news","source":"行业信息平台","publish_time":"2025-05-13T00:00:00","tags":[],"link":"https://www.shpgx.com/html/xyzx/20250513/7803.html","basic_info_tags":["行业资讯"],"region_tags":["上海","深圳"],"energy_type_tags":["液化天然气(LNG)","原油","天然气"],"business_field_tags":["市场动态","价格变化","科技创新","国际合作"],"beneficiary_tags":["能源企业","政府机构"],"policy_measure_tags":["市场监管","技术合作","创新投融资"],"importance_tags":["权威发布","国际影响"],"created_at":"2025-06-03T07:30:39.283674","updated_at":"2025-06-03T07:30:39.283674","relevance_score":0.1,"view_count":0},{"_id":"683e405d4ac14275a187712b","title":"关于开展华港燃气集团有限公司重烃竞价交易的公告","content":"关于开展华港燃气集团有限公司重烃竞价交易的公告本着公平、公正、公开、市场化定价的原则,通过线上市场化交易订立销售合同,华港燃气集团有限公司(以下简称“华港燃气”)在上海石油天然气交易中心(以下简称“上海交易中心”)平台开展重烃竞价交易,现将公告发布如下:\n一、交易时间\n5月20日14:30-15:00\n交易公告链接地址：https://www.shpgx.com/html/jygg/20250520/7825.html\n二、产品信息\n1.产品名称:液厂重烃(C5+)。\n2.卖方:华港燃气集团有限公司。\n3.交易量:约100吨,实际提货量以华港任丘液化天然\n气工厂现场装车量为准,在交收期内可能分多车自提。\n4.交收期:5月20日-6月30日,具体交收时间以卖方\n通知为准,尽量提前1-2天通知,如遇紧急情况,以双方协\n商同意的交收时间。\n5.交收地:华港任丘液化天然气工厂,河北省沧州市任\n丘市迎宾道西侧,通过槽车运输方式自提。\n三、交易模式\n登录上海交易中心交易客户端,依次点击“竞价交 易”-“华港燃气”-“液化天然气”,然后进行相关交易操 作。\n类别 参数 说明\n挂单量 100吨 为预估量,实际提货量以华港任丘液化天然气工厂现场装车量为准。\n最大摘单量 100吨 每场中单个用户最大摘单量\n最小摘单量 100吨 每场中单个用户最小摘单量\n摘单量递增单位 0吨 只能以0吨的整数倍递增\n竞拍底价 卖方自设 于挂单时在交易系统内发布;价格是华港任丘液化天然气工厂自提的价格。\n成交价格  为含税价格。\n最小加价幅度 5元/吨 每次加价的最小值\n最大加价幅度 100元/吨 每次加价的最大值\n加价幅度 5元/吨 加价幅度需为5的整数倍\n倒计时和成交规则 5分钟 挂单后30分钟或挂单量全部出价后开始倒计时,倒计时5分钟,倒计时期间有新报价,倒计时重新开始。倒计时期间内无新报价或交易节结束时,交易结束,倒计时强制终止,按照“价格优先,时间优先”顺序成交。\n四、交易参与资格 本次交易活动对象为具有相应经营范围和危化品经营 资质的客户。\n1、申请企业须为上海交易中心国内交易商会员,且已完\n成银行第三方存管签约。\n2、申请企业应具有良好的信用记录,不在失信被执行\n人企业名单之列。\n3、申请企业应保证压力容器使用登记证,罐车、槽车\n机动车行驶证,年检卡均在有效期限内。\n五、交易保证金和服务费:\n1、交易保证金:按交易成交金额的10%冻结(交易成交金额=成交重烃单价*成交量),待履约完毕,经双方确认,\n释放交易保证金。未达成交易的客户交易保证金将自动释放,\n可操作出金。\n2、交易服务费:成功摘单的客户按交易成交金额的2‰\n向上海交易中心缴纳交易服务费。\n用户应根据拟竞拍量自行计算入金金额,并于交易前完\n成入金,确保账户余额充足。\n六、交易准备工作\n1、已开户客户请查阅交易中心网站(www.shpgx.com)\n——会员中心——下载中心,下载最新交易系统客户端,按照操\n作手册熟悉交易系统。\n2、未开户客户注册流程\n(1)注册:登录上海石油天然气交易中心官网——会员中心——会员注册,填写注册相关信息,跟踪审批进度。联系电话:任老师 021-68822335; (2)账号绑定及入金:选择银行账户进行签约操作, 向系统入金,确保保证金及服务费金额充足。联系电话:顾老师 15800744768,马老师15862884400; 本次活动本着公平、公正、公开原则,活动解释权归华港燃气集团有限公司所有。","type":"announcement","source":"华港燃气集团有限公司","publish_time":"2025-05-20T00:00:00","tags":[],"link":"https://www.shpgx.com/html/jygg/20250520/7825.html","basic_info_tags":["交易公告"],"region_tags":["上海","沧州"],"energy_type_tags":["液化天然气(LNG)","液化石油气(LPG)","重烃"],"business_field_tags":["交易信息"],"beneficiary_tags":["LNG交易方"],"policy_measure_tags":["竞价规则"],"importance_tags":["常规公告"],"created_at":"2025-06-03T07:30:39.283785","updated_at":"2025-06-03T07:30:39.283785","relevance_score":0.026000000000000002,"view_count":0},{"_id":"683e405d4ac14275a1877125","title":"密集投产潮下利用率不足50%，LNG接收站市场竞争加剧，如何保障效益","content":"随着全球LNG贸易量持续增长，中国LNG接收站建设进入密集投产期。然而，受市场供需变化影响，部分接收站利用率不足50%，面临严峻的市场竞争压力。行业专家指出，接收站运营商需要通过技术升级、服务优化、商业模式创新等方式提升竞争力，确保投资效益。未来LNG接收站发展需要统筹规划，避免重复建设，提高整体利用效率。","type":"news","source":"上海石油天然气交易中心","publish_time":"2025-05-30T00:00:00","tags":[],"link":"https://www.shpgx.com/html/xyzx/20250530/7850.html","basic_info_tags":["行业资讯"],"region_tags":["中国","全国"],"energy_type_tags":["液化天然气(LNG)"],"business_field_tags":["接收站运营","市场竞争"],"beneficiary_tags":["LNG运营商","能源企业"],"policy_measure_tags":["技术升级","商业模式创新"],"importance_tags":["行业级"],"created_at":"2025-06-03T07:30:39.283834","updated_at":"2025-06-03T07:30:39.283834","relevance_score":0.02363636363636364,"view_count":0},{"_id":"683e405d4ac14275a1877126","title":"5月19日-25日中国LNG综合进口到岸价格指数为131.78点","content":"5月19日-25日当周，中国LNG综合进口到岸价格指数为131.78点，价格相对稳定。随着夏季用气需求逐步减少，LNG市场供需趋于平衡。业内分析认为，二季度LNG价格将保持相对平稳，但需关注国际市场供应端变化和下半年冬季备货需求。","type":"news","source":"上海石油天然气交易中心","publish_time":"2025-05-29T00:00:00","tags":[],"link":"https://www.shpgx.com/html/xyzx/20250529/7845.html","basic_info_tags":["行业资讯"],"region_tags":["中国","全国"],"energy_type_tags":["液化天然气(LNG)"],"business_field_tags":["价格指数","进口贸易"],"beneficiary_tags":["LNG贸易商","城市燃气公司"],"policy_measure_tags":["价格监测","供需调节"],"importance_tags":["市场级"],"created_at":"2025-06-03T07:30:39.283915","updated_at":"2025-06-03T07:30:39.283915","relevance_score":0.02363636363636364,"view_count":0},{"_id":"683e405d4ac14275a1877124","title":"新奥股份重大资产重组获股东大会超99.9%高票通过，天然气产业链一体化战略取得关键进展","content":"新奥股份重大资产重组方案获得股东大会超99.9%的高票通过，标志着公司天然气产业链一体化战略取得关键性进展。此次重组将进一步完善新奥在天然气全产业链的布局，提升公司在LNG贸易、终端销售等关键环节的竞争优势。市场分析认为，这一举措将有助于新奥股份实现规模化发展，提高抗风险能力。","type":"news","source":"上海石油天然气交易中心","publish_time":"2025-05-30T00:00:00","tags":[],"link":"https://www.shpgx.com/html/xyzx/20250530/7849.html","basic_info_tags":["行业资讯"],"region_tags":["中国","全国"],"energy_type_tags":["天然气","液化天然气(LNG)"],"business_field_tags":["资产重组","产业链一体化"],"beneficiary_tags":["新奥股份","上市公司"],"policy_measure_tags":["资产重组","产业链整合"],"importance_tags":["行业级"],"created_at":"2025-06-03T07:30:39.283859","updated_at":"2025-06-03T07:30:39.283859","relevance_score":0.021666666666666667,"view_count":0},{"_id":"683e405d4ac14275a1877127","title":"非洲渐成LNG供应新主力","content":"随着全球LNG需求持续增长，非洲正逐渐成为LNG供应的新主力。尼日利亚、莫桑比克、坦桑尼亚等非洲国家拥有丰富的天然气资源，正在大力发展LNG出口项目。分析师预计，未来5年非洲LNG产能将显著增长，为全球LNG市场供应多元化做出重要贡献。中国企业也积极参与非洲LNG项目开发。","type":"news","source":"上海石油天然气交易中心","publish_time":"2025-05-28T00:00:00","tags":[],"link":"https://www.shpgx.com/html/xyzx/20250528/7840.html","basic_info_tags":["行业资讯"],"region_tags":["非洲","尼日利亚","莫桑比克","坦桑尼亚","国际"],"energy_type_tags":["液化天然气(LNG)","天然气"],"business_field_tags":["LNG出口","供应格局"],"beneficiary_tags":["非洲国家","LNG生产商"],"policy_measure_tags":["资源开发","国际合作"],"importance_tags":["国际级"],"created_at":"2025-06-03T07:30:39.284097","updated_at":"2025-06-03T07:30:39.284097","relevance_score":0.017333333333333333,"view_count":0},{"_id":"683e405d4ac14275a1877128","title":"欧盟拟立法全面禁止进口俄气","content":"欧盟委员会近日宣布，将于下个月提出法律措施，计划在2027年年底前全面停止进口俄罗斯管道天然气和液化天然气（LNG）。\n欧盟能源和住房事务委员丹·约根森表示：“自2022年2月俄乌冲突爆发以来，欧盟从俄罗斯购买化石燃料的支出已超过对乌克兰的援助金额，这种情况必须改变。”根据计划，欧盟委员会将于6月提交两项法律提案：一是要求在2025年年底前禁止根据新合同和现货合同进口俄罗斯天然气；二是在2027年年底前终止所有现有合同的俄罗斯天然气进口。\n数据显示，2023年欧盟从俄罗斯进口了316.2亿立方米管道天然气和200.5亿立方米LNG，占其天然气总消费量的18%。尽管此前欧盟已对俄罗斯煤炭和大部分原油实施进口禁令，但由于斯洛伐克和匈牙利的反对，天然气贸易一直得以延续。\n欧盟委员会表示，逐步淘汰俄罗斯天然气对欧洲能源价格的影响有限。这是因为从2026年开始，美国、卡塔尔等国的新LNG项目将陆续投产，可确保供应安全。此外，根据要求，各成员国需制定详细的国家计划，说明如何从其能源结构中剔除俄罗斯的天然气、核能和石油。","type":"news","source":"行业信息平台","publish_time":"2025-05-21T00:00:00","tags":[],"link":"https://www.shpgx.com/html/xyzx/20250521/7829.html","basic_info_tags":["行业资讯"],"region_tags":[],"energy_type_tags":["液化天然气(LNG)","管道天然气(PNG)","原油"],"business_field_tags":["市场动态","价格变化","科技创新","国际合作"],"beneficiary_tags":["能源企业","政府机构"],"policy_measure_tags":["市场监管","技术合作","创新投融资"],"importance_tags":["权威发布","国际影响"],"created_at":"2025-06-03T07:30:39.283092","updated_at":"2025-06-03T07:30:39.283092","relevance_score":0.017333333333333333,"view_count":0},{"_id":"683e405d4ac14275a187712a","title":"「CLD周评」CLD价格小幅下降，美欧天然气价格走势分化","content":"上周（5月12日-16日）中国进口现货LNG7月到岸价格（CLD-7月）收于78.627元/吉焦（11.492美元/百万英热），周环比下降0.19%。截至5月16日，CLD-7月累计均值录得78.627元/吉焦（11.492美元/百万英热），较CLD-6月均值变化2.610元/吉焦，变化幅度3.43%。\n美国方面，出口需求小幅回升，但受季节因素影响，居民和商业用气持续走弱，带动总体需求走弱，HH近月期货价格周环比大幅下降12.15%。\nEIA数据显示，5月8日-14日期间，供应端干气产量达1057亿立方英尺/日，于上周基本持平。国内需求端发电用气和工业用气保持平稳，但居民和商业用气大幅减少。出口需求回升，LNG原料气需求小幅增加，美国LNG船货出口量为29船，周环比涨幅约7.92%（详细数据如下图所示）。库存方面，截至5月9日当周，地下储气库库存为\n22,550亿立方英尺，较上一期增加1100亿立方英尺。天气方面，5月8日-14日期间，平均温度最高达约19.4℃（对比前期上升1.7℃），最低至约16.7℃（对比前期上升1.7℃）。HH近月期货结算价于上周五收于3.334美元/百万英热。\n欧洲方面，总体供给小幅上升，但是LNG供应量下降，叠加俄乌局势尚不明朗，市场看多预期主导，TTF近月期货价格周环比小幅增加1.55%。\n根据ENTSOG数据显示，5月8日-14日期间，LNG供应量减少，但地下储气库注气量大幅减少，叠加北海管道气等供应量上升，总供应量增长（详细数据如下图所示）。根据GIE数据显示，截至5月16日，欧盟天然气库存为整体储气能力的44.17%（较前期增加1.97%）, 低于2023-24年同期水平。上周，俄罗斯和乌克兰在土耳其举行会谈，根据央视新闻17日消息：“从会后双方发布的声明情况来看，双方在核心议题上依然分歧巨大。”TTF近月期货结算价于上周五收于35.156欧元/兆瓦时。\n国内方面，中国LNG出站价格周环比下降0.21%，国内外价差持稳。\n上周最后一个估价日（5月16日）, 中国LNG出站价格录得4,674元/\n吨。\n若以\nCLD价格作为我国LNG采购成本，中国LNG出站价格作为销售价格，则二者价差反映了LNG资源的套利空间，上周中国LNG出站价格（收入）和CLD价格（成本）均窄幅波动，倒挂价差持稳，如下图所示。\n综上所述，\n美国市场基本面走弱，HH合约价格大幅下降。欧洲市场关注俄乌和谈最新进展，看多预期主导TTF合约价格小幅上涨。CLD价格和中国LNG出站价格均窄幅波动，国内外价差持稳。","type":"news","source":"行业信息平台","publish_time":"2025-05-20T00:00:00","tags":[],"link":"https://www.shpgx.com/html/xyzx/20250520/7821.html","basic_info_tags":["行业资讯"],"region_tags":["北海"],"energy_type_tags":["液化天然气(LNG)","管道天然气(PNG)","天然气"],"business_field_tags":["市场动态","价格变化","科技创新","国际合作"],"beneficiary_tags":["能源企业","政府机构"],"policy_measure_tags":["市场监管","技术合作","创新投融资"],"importance_tags":["权威发布","国际影响"],"created_at":"2025-06-03T07:30:39.283245","updated_at":"2025-06-03T07:30:39.283245","relevance_score":0.01625,"view_count":0},{"_id":"683e405d4ac14275a1877129","title":"E-Gas系统：5月12日-18日当周中国LNG进口量约123万吨","content":"中国天然气信息终端（E-Gas系统）发布的实时LNG进口到船数据显示，5月12日-5月18日当周，预估中国通过沿海LNG接收站进口LNG共计18船，进口量约123万吨，前值为138万吨。\n表1：5月12日-5月18日中国LNG进口分析\n数据来源：中国天然气信息终端（E-Gas系统）\n从进口来源国看，5月12日-5月18日当周，中国LNG进口来源国有7个。其中，自澳大利亚进口6船，进口量约39万吨，约占当周进口总量的32%。\n从到货地看，5月12日-5月18日当周，华南地区共接卸6船LNG，长三角地区接卸7船，环渤海地区接卸5船。其中，江苏如东LNG接收站到港3船，共计约25万吨，数量最多。\nE-Gas系统LNG船期预测数据显示，5月19日-5月25日当周，中国将通过沿海LNG接收站进口LNG18船，预计进口量约116万吨。\n表2：5月19日-5月25日中国LNG进口预测\n数据来源：中国天然气信息终端（E-Gas系统）\n中国天然气信息终端（E-Gas系统）是中国经济信息社联合上海石油天然气交易中心打造的一款聚焦能源行业细分领域的垂直信息服务产品，通过整合丰富的行业数据资源，并结合企业的实际需求，开发了LNG现货进口成本估算、国内天然气基础设施地图、LNG国际贸易实时统计等特色功能，致力于为用户提供国内最领先的天然气行业综合信息服务。","type":"news","source":"行业信息平台","publish_time":"2025-05-20T00:00:00","tags":[],"link":"https://www.shpgx.com/html/xyzx/20250520/7823.html","basic_info_tags":["行业资讯"],"region_tags":["上海","江苏"],"energy_type_tags":["液化天然气(LNG)","原油","天然气"],"business_field_tags":["市场动态","价格变化","科技创新","国际合作"],"beneficiary_tags":["能源企业","政府机构"],"policy_measure_tags":["市场监管","技术合作","创新投融资"],"importance_tags":["权威发布","国际影响"],"created_at":"2025-06-03T07:30:39.283186","updated_at":"2025-06-03T07:30:39.283186","relevance_score":0.015294117647058824,"view_count":0}],"total":50,"page":1,"page_size":10,"has_next":true}